<?xml version="1.0" encoding="UTF-8" standalone="no"?>
<svg
   xmlns:dc="http://purl.org/dc/elements/1.1/"
   xmlns:cc="http://creativecommons.org/ns#"
   xmlns:rdf="http://www.w3.org/1999/02/22-rdf-syntax-ns#"
   xmlns:svg="http://www.w3.org/2000/svg"
   xmlns="http://www.w3.org/2000/svg"
   xmlns:sodipodi="http://sodipodi.sourceforge.net/DTD/sodipodi-0.dtd"
   xmlns:inkscape="http://www.inkscape.org/namespaces/inkscape"
   width="32"
   height="32"
   viewBox="0 0 32 32"
   version="1.1"
   id="svg836"
   inkscape:version="1.0.1 (3bc2e813f5, 2020-09-07)"
   sodipodi:docname="warning.svg">
  <defs
     id="defs830" />
  <sodipodi:namedview
     id="base"
     pagecolor="#c8c8c8"
     bordercolor="#666666"
     borderopacity="1.0"
     inkscape:pageopacity="0"
     inkscape:pageshadow="2"
     inkscape:zoom="2.8284271"
     inkscape:cx="-63.894939"
     inkscape:cy="31.972786"
     inkscape:document-units="px"
     inkscape:current-layer="layer1"
     showgrid="false"
     units="px"
     inkscape:pagecheckerboard="true"
     inkscape:window-width="2560"
     inkscape:window-height="1361"
     inkscape:window-x="-9"
     inkscape:window-y="-9"
     inkscape:window-maximized="1"
     inkscape:document-rotation="0" />
  <metadata
     id="metadata833">
    <rdf:RDF>
      <cc:Work
         rdf:about="">
        <dc:format>image/svg+xml</dc:format>
        <dc:type
           rdf:resource="http://purl.org/dc/dcmitype/StillImage" />
        <dc:title />
      </cc:Work>
    </rdf:RDF>
  </metadata>
  <g
     inkscape:label="Layer 1"
     inkscape:groupmode="layer"
     id="layer1">
    <path
       d="M 16 3.9824219 C 15.116655 3.9823518 14.308942 4.4813159 13.914062 5.2714844 L 2.8476562 24.462891 L 2.8457031 24.464844 C 2.6203243 24.831784 2.5000884 25.254919 2.5 25.685547 C 2.4999418 26.973278 3.5443009 28.017637 4.8320312 28.017578 C 12.267339 28.026878 19.732556 27.995558 27.167969 28.017578 C 28.455699 28.017637 29.500058 26.973278 29.5 25.685547 C 29.499989 25.251371 29.379215 24.826014 29.150391 24.457031 L 29.148438 24.455078 L 18.083984 5.2695312 C 17.688695 4.4805163 16.882496 3.9823518 16 3.9824219 z M 16 10.277344 C 17.114962 10.277444 18.01943 11.179959 18.019531 12.294922 C 17.979095 14.267009 17.190596 16.79154 16.992188 19.626953 L 15.007812 19.626953 C 14.809404 16.79154 14.020909 14.267009 13.980469 12.294922 C 13.98057 11.179959 14.885038 10.277444 16 10.277344 z M 15.992188 20.806641 A 2.0190762 2.0190762 0 0 1 16 20.806641 A 2.0190762 2.0190762 0 0 1 18.019531 22.826172 A 2.0190762 2.0190762 0 0 1 16 24.845703 A 2.0190762 2.0190762 0 0 1 13.980469 22.826172 A 2.0190762 2.0190762 0 0 1 15.992188 20.806641 z "
       id="path5"
       style="fill:#f10000;fill-opacity:1" />
  </g>
</svg>
