<?xml version="1.0" encoding="UTF-8" standalone="no"?>
<svg
   xmlns:dc="http://purl.org/dc/elements/1.1/"
   xmlns:cc="http://creativecommons.org/ns#"
   xmlns:rdf="http://www.w3.org/1999/02/22-rdf-syntax-ns#"
   xmlns:svg="http://www.w3.org/2000/svg"
   xmlns="http://www.w3.org/2000/svg"
   xmlns:sodipodi="http://sodipodi.sourceforge.net/DTD/sodipodi-0.dtd"
   xmlns:inkscape="http://www.inkscape.org/namespaces/inkscape"
   width="32"
   height="32"
   viewBox="0 0 32 32"
   version="1.1"
   id="svg836"
   inkscape:version="1.0.1 (3bc2e813f5, 2020-09-07)"
   sodipodi:docname="padlock.svg">
  <defs
     id="defs830" />
  <sodipodi:namedview
     id="base"
     pagecolor="#c8c8c8"
     bordercolor="#666666"
     borderopacity="1.0"
     inkscape:pageopacity="0"
     inkscape:pageshadow="2"
     inkscape:zoom="2.8284271"
     inkscape:cx="-73.788687"
     inkscape:cy="105.01497"
     inkscape:document-units="px"
     inkscape:current-layer="layer1"
     showgrid="false"
     units="px"
     inkscape:pagecheckerboard="true"
     inkscape:window-width="2560"
     inkscape:window-height="1361"
     inkscape:window-x="-9"
     inkscape:window-y="-9"
     inkscape:window-maximized="1"
     inkscape:document-rotation="0"
     inkscape:snap-object-midpoints="true" />
  <metadata
     id="metadata833">
    <rdf:RDF>
      <cc:Work
         rdf:about="">
        <dc:format>image/svg+xml</dc:format>
        <dc:type
           rdf:resource="http://purl.org/dc/dcmitype/StillImage" />
        <dc:title />
      </cc:Work>
    </rdf:RDF>
  </metadata>
  <g
     inkscape:label="Layer 1"
     inkscape:groupmode="layer"
     id="layer1">
    <path
       id="rect930-9"
       style="fill:#000000;fill-opacity:1;stroke-width:2.29102;stroke-linejoin:round;stroke-miterlimit:4;stroke-dasharray:none;stroke-opacity:0.582418;stop-color:#000000"
       d="m 15.387901,4.0000001 c -3.288908,0 -5.936815,2.64791 -5.936815,5.9368199 V 11.9921 H 8.686411 c -1.359814,0 -2.454496,1.09468 -2.454496,2.4545 V 25.545504 C 6.231915,26.905317 7.326596,28 8.686411,28 h 14.627177 c 1.359815,0 2.454497,-1.094683 2.454497,-2.454496 V 14.4466 c 0,-1.35982 -1.094682,-2.4545 -2.454497,-2.4545 H 22.548915 V 9.93682 c 0,-3.2889099 -2.647905,-5.9368199 -5.936817,-5.9368199 z m -0.151498,3.5394 h 1.527195 c 1.180823,0 2.131394,0.9512899 2.131394,2.1321099 v 0.67098 1.64961 H 13.105008 V 10.34249 9.67151 c 0,-1.18082 0.95057,-2.1321099 2.131395,-2.1321099 z M 16,16 a 2.1093753,2.1093753 0 0 1 0.01974,0 2.1093753,2.1093753 0 0 1 2.109495,2.1095 2.1093753,2.1093753 0 0 1 -1.271583,1.93538 v 2.88458 c 0,0.28373 -0.228205,0.51193 -0.511938,0.51193 h -0.651948 c -0.283732,0 -0.511936,-0.2282 -0.511936,-0.51193 V 20.04488 A 2.1093753,2.1093753 0 0 1 13.910245,18.1095 2.1093753,2.1093753 0 0 1 15.999996,16 Z" />
  </g>
</svg>
