<?xml version="1.0" encoding="UTF-8" standalone="no"?>
<svg
   xmlns:dc="http://purl.org/dc/elements/1.1/"
   xmlns:cc="http://creativecommons.org/ns#"
   xmlns:rdf="http://www.w3.org/1999/02/22-rdf-syntax-ns#"
   xmlns:svg="http://www.w3.org/2000/svg"
   xmlns="http://www.w3.org/2000/svg"
   xmlns:sodipodi="http://sodipodi.sourceforge.net/DTD/sodipodi-0.dtd"
   xmlns:inkscape="http://www.inkscape.org/namespaces/inkscape"
   width="32"
   height="32"
   viewBox="0 0 32 32"
   version="1.1"
   id="svg836"
   inkscape:version="1.0.1 (3bc2e813f5, 2020-09-07)"
   sodipodi:docname="auTomat.svg">
  <defs
     id="defs830" />
  <sodipodi:namedview
     id="base"
     pagecolor="#c8c8c8"
     bordercolor="#666666"
     borderopacity="1.0"
     inkscape:pageopacity="0"
     inkscape:pageshadow="2"
     inkscape:zoom="5.6568543"
     inkscape:cx="-39.445468"
     inkscape:cy="65.639761"
     inkscape:document-units="px"
     inkscape:current-layer="layer1"
     showgrid="false"
     units="px"
     inkscape:pagecheckerboard="true"
     inkscape:window-width="2560"
     inkscape:window-height="1361"
     inkscape:window-x="-9"
     inkscape:window-y="-9"
     inkscape:window-maximized="1"
     inkscape:document-rotation="0"
     inkscape:snap-object-midpoints="true" />
  <metadata
     id="metadata833">
    <rdf:RDF>
      <cc:Work
         rdf:about="">
        <dc:format>image/svg+xml</dc:format>
        <dc:type
           rdf:resource="http://purl.org/dc/dcmitype/StillImage" />
        <dc:title />
      </cc:Work>
    </rdf:RDF>
  </metadata>
  <g
     inkscape:label="Layer 1"
     inkscape:groupmode="layer"
     id="layer1">
    <g
       id="g874"
       transform="matrix(1.4000043,0,0,1.3999951,-113.5004,-275.74899)">
      <path
         id="path861-4-6-7-2"
         style="fill:#eb2b0d;fill-opacity:1;stroke-width:0.718882;stroke-linecap:round;stroke-linejoin:round;stop-color:#000000"
         d="m 90.561481,198.39295 c -0.20485,0 -0.39367,0.16619 -0.36967,0.36965 l 0.27454,2.33535 c 0.007,0.061 0.0257,0.11715 0.0536,0.16676 a 7.3979662,7.3979662 0 0 0 -1.70921,0.71644 c -0.016,-0.0492 -0.0408,-0.0966 -0.0753,-0.14027 l -1.45695,-1.84529 c -0.0635,-0.0804 -0.15791,-0.11698 -0.25467,-0.11499 -0.0967,0.002 -0.19608,0.0425 -0.26851,0.11499 l -2.69718,2.69718 c -0.14484,0.14485 -0.16083,0.39568 0,0.52258 l 1.84588,1.45696 c 0.0485,0.0383 0.1016,0.0648 0.15654,0.08 a 7.3979662,7.3979662 0 0 0 -0.70319,1.71524 c -0.046,-0.0233 -0.0968,-0.0393 -0.15172,-0.0458 l -2.33535,-0.27454 c -0.20346,-0.0239 -0.37026,0.16482 -0.37026,0.36967 v 3.81456 c 0,0.20485 0.1668,0.39367 0.37026,0.36967 l 2.33535,-0.27514 c 0.061,-0.007 0.11715,-0.0259 0.16676,-0.0536 a 7.3979662,7.3979662 0 0 0 0.71524,1.70922 c -0.0488,0.0172 -0.0959,0.0418 -0.13907,0.0759 l -1.84588,1.45695 c -0.1608,0.12694 -0.14485,0.37834 0,0.52318 l 2.69717,2.69718 c 0.14484,0.14484 0.39628,0.16083 0.52318,0 l 1.45695,-1.84588 c 0.0383,-0.0485 0.0648,-0.1016 0.08,-0.15654 a 7.3979662,7.3979662 0 0 0 1.71524,0.70319 c -0.0232,0.0459 -0.0393,0.0968 -0.0458,0.15172 l -0.27454,2.33535 c -0.024,0.20346 0.16482,0.37026 0.36966,0.37026 h 3.81458 c 0.20485,0 0.39366,-0.1668 0.36966,-0.37026 l -0.27514,-2.33535 c -0.007,-0.061 -0.0259,-0.11715 -0.0536,-0.16676 a 7.3979662,7.3979662 0 0 0 1.71041,-0.71584 c 0.016,0.0489 0.0403,0.0962 0.0747,0.13967 l 1.45696,1.84588 c 0.12694,0.1608 0.37772,0.14485 0.52257,0 l 2.697179,-2.69717 c 0.14485,-0.14484 0.16084,-0.39628 0,-0.52318 l -1.845279,-1.45695 c -0.0482,-0.0381 -0.10171,-0.0626 -0.15652,-0.0795 a 7.3979662,7.3979662 0 0 0 0.70319,-1.71584 c 0.046,0.0233 0.0967,0.0393 0.15171,0.0458 l 2.335339,0.27454 c 0.20346,0.0239 0.36966,-0.16482 0.36966,-0.36967 v -3.81458 c 0,-0.20483 -0.1662,-0.39365 -0.36966,-0.36965 l -2.335339,0.27513 c -0.061,0.007 -0.11716,0.0259 -0.16677,0.0536 a 7.3979662,7.3979662 0 0 0 -0.71643,-1.70983 c 0.0492,-0.016 0.0966,-0.0408 0.14027,-0.0753 l 1.845279,-1.45696 c 0.1608,-0.12694 0.14485,-0.37773 0,-0.52257 l -2.697179,-2.69719 c -0.0725,-0.0725 -0.17114,-0.11301 -0.26791,-0.11499 -0.0967,-0.002 -0.19122,0.0346 -0.25467,0.11499 l -1.45695,1.84529 c -0.0383,0.0485 -0.0648,0.10159 -0.08,0.15653 a 7.3979662,7.3979662 0 0 0 -1.71523,-0.7032 c 0.0233,-0.046 0.0393,-0.0968 0.0458,-0.15171 l 0.27454,-2.33535 c 0.024,-0.20346 -0.1648,-0.36965 -0.36965,-0.36965 z m 1.86394,3.06442 a 6.9355933,6.9355933 0 0 1 0.0747,0 6.9355933,6.9355933 0 0 1 6.93559,6.93559 6.9355933,6.9355933 0 0 1 -6.93559,6.9356 6.9355933,6.9355933 0 0 1 -6.93559,-6.9356 6.9355933,6.9355933 0 0 1 6.86094,-6.93559 z m 0.0747,0.46237 a 6.4732204,6.4732204 0 0 0 -6.47322,6.47322 6.4732204,6.4732204 0 0 0 6.47322,6.47322 6.4732204,6.4732204 0 0 0 6.47323,-6.47322 6.4732204,6.4732204 0 0 0 -6.47323,-6.47322 z m -0.0602,2.31187 a 4.1613561,4.1613561 0 0 1 0.0602,0 4.1613561,4.1613561 0 0 1 4.16136,4.16135 4.1613561,4.1613561 0 0 1 -4.16136,4.16136 4.1613561,4.1613561 0 0 1 -4.16136,-4.16136 4.1613561,4.1613561 0 0 1 4.10116,-4.16135 z m 0.0602,0.46237 a 3.6989832,3.6989832 0 0 0 -3.69898,3.69898 3.6989832,3.6989832 0 0 0 3.69898,3.69898 3.6989832,3.6989832 0 0 0 3.69899,-3.69898 3.6989832,3.6989832 0 0 0 -3.69899,-3.69898 z m -0.006,0.6165 a 3.0824859,3.0824859 0 0 1 0.006,0 3.0824859,3.0824859 0 0 1 3.08249,3.08248 3.0824859,3.0824859 0 0 1 -3.08249,3.08249 3.0824859,3.0824859 0 0 1 -3.08249,-3.08249 3.0824859,3.0824859 0 0 1 3.07708,-3.08248 z" />
      <circle
         style="fill:#f57a3b;fill-opacity:1;stroke:#ed4724;stroke-width:0.591484;stroke-linecap:round;stroke-linejoin:round;stroke-miterlimit:4;stroke-dasharray:none;stroke-opacity:1;stop-color:#000000"
         id="path1021-9"
         cx="92.5"
         cy="208.39287"
         r="7.2016153" />
      <path
         id="path1034-9"
         style="fill:#eb2b0d;fill-opacity:1;stroke:none;stroke-width:1.13927px;stroke-linecap:butt;stroke-linejoin:miter;stroke-opacity:1"
         d="m 91.403003,202.56298 c -0.082,-0.005 -0.173066,0.002 -0.273692,0.0267 -4.198006,1.02164 -4.987544,4.27017 -4.294532,7.02923 0.06993,0.2784 0.270653,1.03254 1.119249,0.63862 l 4.261154,-1.97815 -0.09568,-4.82412 c -0.0036,-0.18399 -0.14249,-0.85764 -0.716499,-0.89228 z m 2.113889,0.004 c -0.271666,0.0376 -0.573166,0.23773 -0.549611,0.93901 l -0.09123,4.66835 4.327909,2.11389 c 0.553181,0.27008 1.271021,-0.26917 1.328413,-1.17932 0.240011,-3.80621 -1.955569,-6.09849 -4.766263,-6.53748 -0.0709,-0.011 -0.158662,-0.017 -0.249217,-0.004 z m -0.905634,5.88328 -4.161024,2.49884 c -0.180291,0.10829 -0.941116,0.6468 -0.335996,1.21271 3.155623,2.95111 6.892729,2.04305 8.820479,-0.049 0.194514,-0.21109 0.460851,-0.68996 -0.333772,-1.18378 z" />
      <circle
         style="fill:#f5ad87;fill-opacity:1;stroke:none;stroke-width:0.637221;stroke-linecap:round;stroke-linejoin:round;stroke-miterlimit:4;stroke-dasharray:none;stroke-opacity:1;stop-color:#000000"
         id="path1023-2"
         cx="92.5"
         cy="208.39287"
         r="2.4922907" />
      <path
         id="path1070-3"
         style="fill:#ffcb1b;fill-opacity:1;stroke:none;stroke-width:1.13927px;stroke-linecap:butt;stroke-linejoin:miter;stroke-opacity:1"
         d="m 90.906797,204.18066 c -0.274625,0.0458 -0.51062,0.29 -0.416103,0.72095 0.1833,0.50268 0.458741,0.59586 0.83888,0.75655 0.201468,-0.36354 0.289371,-0.5837 0.222515,-1.00354 -0.05841,-0.36674 -0.370669,-0.51971 -0.645292,-0.47396 z m 3.20866,0.0156 c -0.206399,-0.0285 -0.433415,0.0675 -0.582988,0.3627 -0.176043,0.50526 -0.02141,0.75209 0.171336,1.11702 0.386017,-0.15409 0.593906,-0.26895 0.807728,-0.63639 0.23347,-0.40122 -0.05208,-0.79574 -0.396076,-0.84333 z m 1.706687,1.46192 c -0.08481,0.009 -0.178141,0.038 -0.275918,0.089 -0.437046,0.30866 -0.454136,0.59902 -0.509558,1.00799 0.403645,0.0991 0.640385,0.12785 1.028017,-0.0467 0.592559,-0.26687 0.351093,-1.11606 -0.242541,-1.05027 z m -6.646512,0.009 c -0.429498,0.0176 -0.787403,0.55587 -0.295943,0.99909 0.441577,0.30214 0.718815,0.21735 1.121473,0.12683 -0.0477,-0.41289 -0.101851,-0.64538 -0.400527,-0.94791 -0.130451,-0.13214 -0.281836,-0.18387 -0.425003,-0.17801 z m 7.004761,2.31415 c -0.298315,0.0345 -0.479011,0.19411 -0.720948,0.38717 0.223387,0.35051 0.373476,0.53268 0.774351,0.67422 0.700352,0.24728 1.136949,-0.80742 0.289269,-1.05249 -0.132307,-0.0197 -0.243234,-0.0204 -0.342672,-0.009 z m -7.529895,0.0112 c -0.742064,-0.0313 -0.851132,1.1043 0.03115,1.09033 0.529076,-0.0798 0.674829,-0.33138 0.907861,-0.672 -0.316258,-0.2697 -0.514257,-0.40042 -0.939012,-0.41833 z m 5.480535,2.53222 c -0.06498,0.41053 -0.07291,0.64746 0.133509,1.01912 0.360621,0.6493 1.386948,0.14894 0.914535,-0.59634 -0.344167,-0.40967 -0.635871,-0.40179 -1.048044,-0.42278 z m -3.246489,0.0112 c -0.415395,0.0142 -0.648929,0.0516 -0.974613,0.32488 -0.568983,0.47738 0.11679,1.38862 0.758774,0.78325 0.336843,-0.41572 0.27352,-0.69947 0.215839,-1.10813 z m 1.626583,0.49844 c -0.302695,0.28483 -0.454158,0.46759 -0.51846,0.88783 -0.112333,0.73418 1.005409,0.96752 1.088097,0.089 -0.02135,-0.53462 -0.256571,-0.70792 -0.569637,-0.97684 z" />
    </g>
  </g>
</svg>
